…
```
## See spec(...) for full column specifications.
```

```
## # A tibble: 801 x 41
##    abilities against_bug against_dark against_dragon against_electric
##    <chr>           <dbl>        <dbl>          <dbl>            <dbl>
##  1 ['Overgr…        1               1              1              0.5
##  2 ['Overgr…        1               1              1              0.5
##  3 ['Overgr…        1               1              1              0.5
##  4 ['Blaze'…        0.5             1              1              1  
##  5 ['Blaze'…        0.5             1              1              1  
##  6 ['Blaze'…        0.25            1              1              2  
##  7 ['Torren…        1               1              1              2  
##  8 ['Torren…        1               1              1              2  
##  9 ['Torren…        1               1              1              2  
## 10 ['Shield…        1               1              1              1  
## # … with 791 more rows, and 36 more variables: against_fairy <dbl>,
## #   against_fight <dbl>, against_fire <dbl>, against_flying <dbl>,
## #   against_ghost <dbl>, against_grass <dbl>, against_ground <dbl>,
## #   against_ice <dbl>, against_normal <dbl>, against_poison <dbl>,
## #   against_psychic <dbl>, against_rock <dbl>, against_steel <dbl>,
## #   against_water <dbl>, attack <dbl>, base_egg_steps <dbl>,
## #   base_happiness <dbl>, base_total <dbl>, capture_rate <chr>,
## #   classfication <chr>, defense <dbl>, experience_growth <dbl>,
## #   height_m <dbl>, hp <dbl>, japanese_name <chr>, name <chr>,
…
